[0. 0. 0. 0. 1. 1. 1. 1. 1. 1.]
[0. 0. 1. 1. 1. 1. 1. 1. 1. 1.]
[0. 0. 0. 1. 1. 1. 1. 1. 1. 1.]
[0. 0. 1. 1. 1. 1. 1. 1. 1. 1.]
[0. 0. 1. 1. 1. 1. 1. 1. 1. 1.]
[1. 1. 1. 1. 1. 1. 1. 1. 1. 1.]
[0. 0. 0. 0. 0. 0. 1. 1. 1. 1.]
[0. 1. 1. 1. 1. 1. 1. 1. 1. 1.]
[0. 0. 0. 0. 0. 0. 1. 1. 1. 1.]
[0. 0. 1. 1. 1. 1. 1. 1. 1. 1.]
[0. 1. 1. 1. 1. 1. 1. 1. 1. 1.]
[0. 0. 0. 1. 1. 1. 1. 1. 1. 1.]
[0. 0. 1. 1. 1. 1. 1. 1. 1. 1.]
[0. 0. 0. 0. 1. 1. 1. 1. 1. 1.]
[0. 1. 1. 1. 1. 1. 1. 1. 1. 1.]
[1. 1. 1. 1. 1. 1. 1. 1. 1. 1.]
[0. 0. 0. 0. 1. 1. 1. 1. 1. 1.]
[0. 0. 0. 0. 1. 1. 1. 1. 1. 1.]
[0. 0. 0. 1. 1. 1. 1. 1. 1. 1.]
[0. 0. 0. 1. 1. 1. 1. 1. 1. 1.]
[0. 0. 0. 1. 1. 1. 1. 1. 1. 1.]
[0. 0. 0. 1. 1. 1. 1. 1. 1. 1.]
[0. 0. 1. 1. 1. 1. 1. 1. 1. 1.]
[0. 1. 1. 1. 1. 1. 1. 1. 1. 1.]
[1. 1. 1. 1. 1. 1. 1. 1. 1. 1.]
[0. 0. 0. 0. 0. 0. 1. 1. 1. 1.]
[0. 0. 0. 0. 1. 1. 1. 1. 1. 1.]
[0. 0. 1. 1. 1. 1. 1. 1. 1. 1.]
[0. 0. 0. 0. 1. 1. 1. 1. 1. 1.]
[0. 0. 0. 0. 1. 1. 1. 1. 1. 1.]
[0. 0. 0. 0. 1. 1. 1. 1. 1. 1.]
[0. 0. 1. 1. 1. 1. 1. 1. 1. 1.]
[0. 0. 1. 1. 1. 1. 1. 1. 1. 1.]
[0. 0. 0. 1. 1. 1. 1. 1. 1. 1.]
[0. 0. 0. 1. 1. 1. 1. 1. 1. 1.]
[0. 0. 0. 1. 1. 1. 1. 1. 1. 1.]
[0. 0. 0. 0. 0. 0. 1. 1. 1. 1.]
[0. 0. 1. 1. 1. 1. 1. 1. 1. 1.]
[0. 0. 1. 1. 1. 1. 1. 1. 1. 1.]
[0. 0. 0. 0. 1. 1. 1. 1. 1. 1.]
[0. 1. 1. 1. 1. 1. 1. 1. 1. 1.]
[0. 0. 0. 1. 1. 1. 1. 1. 1. 1.]
[0. 0. 0. 0. 1. 1. 1. 1. 1. 1.]
[0. 0. 1. 1. 1. 1. 1. 1. 1. 1.]
[0. 0. 0. 0. 1. 1. 1. 1. 1. 1.]
[0. 0. 0. 1. 1. 1. 1. 1. 1. 1.]
[0. 1. 1. 1. 1. 1. 1. 1. 1. 1.]
[0. 1. 1. 1. 1. 1. 1. 1. 1. 1.]
[0. 0. 0. 1. 0. 0. 1. 1. 1. 1.]
[0. 0. 1. 1. 1. 1. 1. 1. 1. 1.]
[0. 0. 0. 0. 1. 1. 1. 1. 1. 1.]
[0. 0. 1. 1. 1. 1. 1. 1. 1. 1.]
[1. 1. 1. 1. 1. 1. 1. 1. 1. 1.]
[0. 0. 0. 0. 1. 1. 1. 1. 1. 1.]
[0. 0. 0. 0. 1. 1. 1. 1. 1. 1.]
[0. 0. 0. 0. 0. 1. 1. 1. 1. 1.]
[0. 0. 0. 1. 1. 1. 1. 1. 1. 1.]
[0. 0. 0. 0. 1. 1. 1. 1. 1. 1.]
[0. 1. 1. 1. 1. 1. 1. 1. 1. 1.]
[0. 0. 1. 1. 1. 1. 1. 1. 1. 1.]
[0. 0. 0. 1. 1. 1. 1. 1. 1. 1.]
[0. 0. 0. 1. 1. 1. 1. 1. 1. 1.]
[0. 0. 1. 1. 1. 1. 1. 1. 1. 1.]
[0. 0. 0. 1. 1. 1. 1. 1. 1. 1.]
[0. 0. 1. 1. 1. 1. 1. 1. 1. 1.]
[0. 0. 0. 1. 1. 1. 1. 1. 1. 1.]
[0. 0. 0. 0. 1. 1. 1. 1. 1. 1.]
[0. 0. 1. 1. 1. 1. 1. 1. 1. 1.]
[0. 1. 1. 1. 1. 1. 1. 1. 1. 1.]
[0. 1. 1. 1. 1. 1. 1. 1. 1. 1.]
[0. 0. 0. 1. 1. 1. 1. 1. 1. 1.]
[0. 0. 0. 1. 1. 1. 1. 1. 1. 1.]
[0. 0. 1. 1. 1. 1. 1. 1. 1. 1.]
[0. 1. 1. 1. 1. 1. 1. 1. 1. 1.]
[0. 0. 0. 1. 1. 1. 1. 1. 1. 1.]
[0. 0. 0. 0. 1. 1. 1. 1. 1. 1.]
[0. 0. 1. 1. 1. 1. 1. 1. 1. 1.]
[0. 0. 0. 0. 0. 0. 1. 1. 1. 1.]
[0. 1. 1. 1. 1. 1. 1. 1. 1. 1.]
[0. 0. 1. 1. 1. 1. 1. 1. 1. 1.]
[0. 0. 1. 1. 1. 1. 1. 1. 1. 1.]
[0. 0. 0. 1. 1. 1. 1. 1. 1. 1.]
[0. 1. 1. 1. 1. 1. 1. 1. 1. 1.]
[0. 0. 0. 1. 1. 1. 1. 1. 1. 1.]
[0. 0. 0. 1. 1. 1. 1. 1. 1. 1.]
[0. 0. 0. 0. 0. 1. 1. 1. 1. 1.]
[0. 1. 1. 1. 1. 1. 1. 1. 1. 1.]
[0. 0. 0. 0. 1. 1. 1. 1. 1. 1.]
[0. 0. 1. 1. 1. 1. 1. 1. 1. 1.]
[0. 0. 1. 1. 1. 1. 1. 1. 1. 1.]
[0. 0. 0. 1. 1. 1. 1. 1. 1. 1.]
[0. 0. 0. 1. 1. 1. 1. 1. 1. 1.]
[0. 0. 0. 0. 1. 1. 1. 1. 1. 1.]
[0. 0. 1. 1. 1. 1. 1. 1. 1. 1.]
[0. 1. 1. 1. 1. 1. 1. 1. 1. 1.]
[0. 0. 0. 1. 1. 1. 1. 1. 1. 1.]
[0. 0. 0. 0. 1. 1. 1. 1. 1. 1.]
[0. 0. 0. 0. 1. 1. 1. 1. 1. 1.]
[0. 0. 0. 0. 1. 1. 1. 1. 1. 1.]
[0. 0. 1. 1. 1. 1. 1. 1. 1. 1.]
accuracy percentage based on number of correct predictions is 91.0